#############################################################################
-Activity(Design, coding, writing tests, debugging):
	Cloned git on my timberlake and added log file.
-Tools(Editor, debugger, compiler, testing framework):
	vim, git.
-Duration:
        03/08 - 1:40
-Participants
	Doug, Tyler and Joe.
#############################################################################
#############################################################################
-Activity(Design, coding, writing tests, debugging):

-Tools(Editor, debugger, compiler, testing framework):

-Duration:
        03/08 - 1:40
-Participants 
        Doug, Tyler and Joe.
#############################################################################
